{
    "BATCH_SIZE": 32,
    "EPOCHS": 10,
    "EVAL_INTERVAL": 140,
    "GRAD_ACC_STEPS": 1,
    "LR": 8e-06,
    "MAX_LEN": 98,
    "METRIC": "F1_SCORE_WEIGHTED",
    "PAD_TOKEN": "PAD",
    "PROJECT_NAME": "sample-ml-project",
    "RUN_ID": "2.0",
    "RUN_NAME": "lstm-baseline-2.0",
    "SEED": 42,
    "UNK_TOKEN": "UNK",
    "VOCAB_SIZE": 7848
}